eventList,directorateList,Date,Date2,Requirement,Limit
AL,G3,2023-01-01,1,1,9
AL,G3,2023-01-02,2,1,9
AL,G3,2023-01-03,3,1,9
AL,G3,2023-01-04,4,1,9
AL,G3,2023-01-05,5,3,9
AL,G3,2023-01-06,6,3,9
AL,G3,2023-01-07,7,3,9
AL,G3,2023-01-08,8,6,9
AL,G3,2023-01-09,9,6,9
AL,G3,2023-01-10,10,3,9
AL,G7,2023-01-01,1,3,9
AL,G7,2023-01-02,2,3,9
AL,G7,2023-01-03,3,3,9
AL,G7,2023-01-04,4,5,9
AL,G7,2023-01-05,5,7,9
AL,G7,2023-01-06,6,2,9
AL,G7,2023-01-07,7,2,9
AL,G7,2023-01-08,8,2,9
AL,G7,2023-01-09,9,2,9
AL,G7,2023-01-10,10,1,9
JA,G3,2023-01-01,1,0,9
JA,G3,2023-01-02,2,0,9
JA,G3,2023-01-03,3,5,9
JA,G3,2023-01-04,4,5,9
JA,G3,2023-01-05,5,3,9
JA,G3,2023-01-06,6,3,9
JA,G7,2023-01-07,7,3,9
JA,G7,2023-01-08,8,3,9
JA,G7,2023-01-09,9,7,9
JA,G7,2023-01-10,10,7,9
JA,G7,2023-01-11,11,2,9
JA,G7,2023-01-12,12,1,9
